…
dat <- get_data(DatasetCode = "FO")

library(dplyr)
dat %>% count(item)
# # A tibble: 79 x 2
# item                                         n
# <chr>                                    <int>
# 1 Cartonboard                              16906
# 2 Case materials                           16683
# 3 Chemical wood pulp                       31221
# 4 Chemical wood pulp, sulphate, bleached   26967
# 5 Chemical wood pulp, sulphate, unbleached 21963
# 6 Chemical wood pulp, sulphite, bleached   22591
# 7 Chemical wood pulp, sulphite, unbleached 17864
# 8 Dissolving wood pulp                     21365
# 9 Fibreboard                               36263
# 10 Fibreboard, compressed (1961-1994)       14539
# # ... with 69 more rows
…
